%YAML 1.1
%TAG !u! tag:unity3d.com,2011:
--- !u!114 &11400000
MonoBehaviour:
  m_ObjectHideFlags: 0
  m_CorrespondingSourceObject: {fileID: 0}
  m_PrefabInstance: {fileID: 0}
  m_PrefabAsset: {fileID: 0}
  m_GameObject: {fileID: 0}
  m_Enabled: 1
  m_EditorHideFlags: 0
  m_Script: {fileID: 11500000, guid: fa8ffa384f78d4760bc1ac79c6af9c21, type: 3}
  m_Name: Chry
  m_EditorClassIdentifier: 
  Id: 11
  uiDisplay: {fileID: 21300000, guid: 9ab6e3987d368494e9207e6604eecafe, type: 3}
  type: 3
  itemName: "\u83CA\u82B1"
  flavor: "\u83CA\u82B1\u7684\u9999\u6C23\u8F03\u70BA\u6DE1\u96C5\uFF0C\u5E36\u6709\u6DE1\u6DE1\u7684\u82E6\u9999\u5473\uFF0C\u66F4\u662F\u9AD8\u96C5\u3001\u7D14\u6F54\u7684\u8C61\u5FB5\u3002"
  effect: "\u5BCC\u542B\u8C50\u5BCC\u7684\u7DAD\u751F\u7D20\u4EE5\u53CA\u7926\u7269\u8CEA\uFF0C\u53EF\u8ABF\u7BC0\u514D\u75AB\u7CFB\u7D71\uFF0C\u589E\u9032\u62B5\u6297\u529B\uFF0C\u8B77\u773C\u4FDD\u809D\u3001\u6392\u6BD2\u3001\u7A69\u5B9A\u8840\u58D3\u3001\u9810\u9632\u5FC3\u81DF\u75C5\u3002"
  coordination: "\u9ED1\u8336"
  buffs: []
