%YAML 1.1
%TAG !u! tag:unity3d.com,2011:
--- !u!114 &11400000
MonoBehaviour:
  m_ObjectHideFlags: 0
  m_CorrespondingSourceObject: {fileID: 0}
  m_PrefabInstance: {fileID: 0}
  m_PrefabAsset: {fileID: 0}
  m_GameObject: {fileID: 0}
  m_Enabled: 1
  m_EditorHideFlags: 0
  m_Script: {fileID: 11500000, guid: fa8ffa384f78d4760bc1ac79c6af9c21, type: 3}
  m_Name: Jasmine
  m_EditorClassIdentifier: 
  Id: 9
  uiDisplay: {fileID: 21300000, guid: 31c741e50a8d748ac92223c6df166dee, type: 3}
  type: 3
  itemName: "\u8309\u8389\u82B1"
  flavor: "\u53F0\u7063\u5F88\u5E38\u898B\u7684\u82B1\u5349\uFF0C\u5E38\u65BC\u590F\u5B63\u958B\u82B1\uFF0C\u5473\u9053\u9AD8\u96C5\u6E05\u65B0\u3001\u6FC3\u90C1
    \u3002"
  effect: "\u6709\u8C50\u5BCC\u7684\u7DAD\u751F\u7D20C\u53CAE\uFF0C\u53EF\u589E\u5F37\u514D\u75AB\u529B\u3001\u7D13\u89E3\u7D93\u75DB\u3001\u990A\u984F\u7F8E\u5BB9\u3001\u7D13\u89E3\u58D3\u529B\u3002"
  coordination: "\u7DA0\u8336"
  buffs: []
