%YAML 1.1
%TAG !u! tag:unity3d.com,2011:
--- !u!74 &7400000
AnimationClip:
  m_ObjectHideFlags: 0
  m_CorrespondingSourceObject: {fileID: 0}
  m_PrefabInstance: {fileID: 0}
  m_PrefabAsset: {fileID: 0}
  m_Name: Arrow Continue
  serializedVersion: 6
  m_Legacy: 0
  m_Compressed: 0
  m_UseHighQualityCurve: 1
  m_RotationCurves: []
  m_CompressedRotationCurves: []
  m_EulerCurves: []
  m_PositionCurves: []
  m_ScaleCurves: []
  m_FloatCurves: []
  m_PPtrCurves:
  - curve:
    - time: 0
      value: {fileID: 21300000, guid: 17c851bd2d23c4503b2ac93b3117fb2d, type: 3}
    - time: 0.033333335
      value: {fileID: 21300000, guid: f5588a8a359624c8b9395a3821701046, type: 3}
    - time: 0.06666667
      value: {fileID: 21300000, guid: d6a1a6609c377452985f5633dd8ce2be, type: 3}
    - time: 0.1
      value: {fileID: 21300000, guid: 485646af0d5c94573847acfec1f47021, type: 3}
    - time: 0.13333334
      value: {fileID: 21300000, guid: 7aa3393b2d344432fbc0998e24d9c6bf, type: 3}
    - time: 0.16666667
      value: {fileID: 21300000, guid: ce4a606c3d9f0406d9f4a7d3ec5e2112, type: 3}
    - time: 0.2
      value: {fileID: 21300000, guid: 47a234973e2c441e4ac613f7c9793944, type: 3}
    - time: 0.23333333
      value: {fileID: 21300000, guid: 96490cd9f779d447a8479565861dd52f, type: 3}
    - time: 0.26666668
      value: {fileID: 21300000, guid: 223a131b38fa0433faba3445d0e2a607, type: 3}
    - time: 0.3
      value: {fileID: 21300000, guid: 2826d072427b34bcd8926a61425bdcb6, type: 3}
    - time: 0.33333334
      value: {fileID: 21300000, guid: 3472b00125f184ea79cad376c33c4bf2, type: 3}
    - time: 0.36666667
      value: {fileID: 21300000, guid: 5dae0eb738d2e4578b32be09f714e4ab, type: 3}
    - time: 0.4
      value: {fileID: 21300000, guid: 35d25ca1c01854b22a49725e02f684d2, type: 3}
    - time: 0.43333334
      value: {fileID: 21300000, guid: dbbf59adff91d43a7bbc6f675fa1937a, type: 3}
    - time: 0.46666667
      value: {fileID: 21300000, guid: f5962ea266b344f9ea7cdaaf93cfe38a, type: 3}
    - time: 0.5
      value: {fileID: 21300000, guid: f9497175c51d04e75a9a4c0c7691edc4, type: 3}
    - time: 0.53333336
      value: {fileID: 21300000, guid: 46b119f54f2394947a704c8a94cba135, type: 3}
    - time: 0.56666666
      value: {fileID: 21300000, guid: b1ba0c5d014ea43eb924e94d21b7497b, type: 3}
    - time: 0.6
      value: {fileID: 21300000, guid: a5cd9ac6751af4c8b83fdfbe3898860e, type: 3}
    - time: 0.6333333
      value: {fileID: 21300000, guid: de366be4e41d64f60996d54b660251b1, type: 3}
    - time: 0.6666667
      value: {fileID: 21300000, guid: a6648d8e7a0434bbd9a0a8ff6b04348a, type: 3}
    - time: 0.7
      value: {fileID: 21300000, guid: f8aecc1fa7eb342d395ee2cf7a009da9, type: 3}
    - time: 0.73333335
      value: {fileID: 21300000, guid: 9928fdc0df9c84240be5bd73c0fcc853, type: 3}
    - time: 0.76666665
      value: {fileID: 21300000, guid: d1731e3eb816a46a68c0cb047e94af64, type: 3}
    - time: 0.8
      value: {fileID: 21300000, guid: e1f91b2c34832416f93ab8c5e00e8e6e, type: 3}
    - time: 0.8333333
      value: {fileID: 21300000, guid: 0fe3fe9518e8242ddb24c92d0a481897, type: 3}
    - time: 0.8666667
      value: {fileID: 21300000, guid: ebdab30fa7a6f446ca096b6cc881553a, type: 3}
    - time: 0.9
      value: {fileID: 21300000, guid: 7a68bc98b576d42a49b873bd90b87358, type: 3}
    - time: 0.93333334
      value: {fileID: 21300000, guid: eb10c8da56a3e4ba4ad1c43967f1c95e, type: 3}
    - time: 0.96666664
      value: {fileID: 21300000, guid: 982637844e99a4d6d8321e509fc7b67b, type: 3}
    - time: 1
      value: {fileID: 21300000, guid: fcdce06ac168b41d6a320cdf6549ac27, type: 3}
    - time: 1.0333333
      value: {fileID: 21300000, guid: c345641d90bc04e1baea65a4b1bc52ae, type: 3}
    - time: 1.0666667
      value: {fileID: 21300000, guid: 2b22752efae064094ba1bc988288ba8b, type: 3}
    - time: 1.1
      value: {fileID: 21300000, guid: f1378c5097578472b9f45372e7c4ba02, type: 3}
    attribute: m_Sprite
    path: 
    classID: 114
    script: {fileID: 11500000, guid: fe87c0e1cc204ed48ad3b37840f39efc, type: 3}
  m_SampleRate: 30
  m_WrapMode: 0
  m_Bounds:
    m_Center: {x: 0, y: 0, z: 0}
    m_Extent: {x: 0, y: 0, z: 0}
  m_ClipBindingConstant:
    genericBindings:
    - serializedVersion: 2
      path: 0
      attribute: 2015549526
      script: {fileID: 11500000, guid: fe87c0e1cc204ed48ad3b37840f39efc, type: 3}
      typeID: 114
      customType: 0
      isPPtrCurve: 1
    pptrCurveMapping:
    - {fileID: 21300000, guid: 17c851bd2d23c4503b2ac93b3117fb2d, type: 3}
    - {fileID: 21300000, guid: f5588a8a359624c8b9395a3821701046, type: 3}
    - {fileID: 21300000, guid: d6a1a6609c377452985f5633dd8ce2be, type: 3}
    - {fileID: 21300000, guid: 485646af0d5c94573847acfec1f47021, type: 3}
    - {fileID: 21300000, guid: 7aa3393b2d344432fbc0998e24d9c6bf, type: 3}
    - {fileID: 21300000, guid: ce4a606c3d9f0406d9f4a7d3ec5e2112, type: 3}
    - {fileID: 21300000, guid: 47a234973e2c441e4ac613f7c9793944, type: 3}
    - {fileID: 21300000, guid: 96490cd9f779d447a8479565861dd52f, type: 3}
    - {fileID: 21300000, guid: 223a131b38fa0433faba3445d0e2a607, type: 3}
    - {fileID: 21300000, guid: 2826d072427b34bcd8926a61425bdcb6, type: 3}
    - {fileID: 21300000, guid: 3472b00125f184ea79cad376c33c4bf2, type: 3}
    - {fileID: 21300000, guid: 5dae0eb738d2e4578b32be09f714e4ab, type: 3}
    - {fileID: 21300000, guid: 35d25ca1c01854b22a49725e02f684d2, type: 3}
    - {fileID: 21300000, guid: dbbf59adff91d43a7bbc6f675fa1937a, type: 3}
    - {fileID: 21300000, guid: f5962ea266b344f9ea7cdaaf93cfe38a, type: 3}
    - {fileID: 21300000, guid: f9497175c51d04e75a9a4c0c7691edc4, type: 3}
    - {fileID: 21300000, guid: 46b119f54f2394947a704c8a94cba135, type: 3}
    - {fileID: 21300000, guid: b1ba0c5d014ea43eb924e94d21b7497b, type: 3}
    - {fileID: 21300000, guid: a5cd9ac6751af4c8b83fdfbe3898860e, type: 3}
    - {fileID: 21300000, guid: de366be4e41d64f60996d54b660251b1, type: 3}
    - {fileID: 21300000, guid: a6648d8e7a0434bbd9a0a8ff6b04348a, type: 3}
    - {fileID: 21300000, guid: f8aecc1fa7eb342d395ee2cf7a009da9, type: 3}
    - {fileID: 21300000, guid: 9928fdc0df9c84240be5bd73c0fcc853, type: 3}
    - {fileID: 21300000, guid: d1731e3eb816a46a68c0cb047e94af64, type: 3}
    - {fileID: 21300000, guid: e1f91b2c34832416f93ab8c5e00e8e6e, type: 3}
    - {fileID: 21300000, guid: 0fe3fe9518e8242ddb24c92d0a481897, type: 3}
    - {fileID: 21300000, guid: ebdab30fa7a6f446ca096b6cc881553a, type: 3}
    - {fileID: 21300000, guid: 7a68bc98b576d42a49b873bd90b87358, type: 3}
    - {fileID: 21300000, guid: eb10c8da56a3e4ba4ad1c43967f1c95e, type: 3}
    - {fileID: 21300000, guid: 982637844e99a4d6d8321e509fc7b67b, type: 3}
    - {fileID: 21300000, guid: fcdce06ac168b41d6a320cdf6549ac27, type: 3}
    - {fileID: 21300000, guid: c345641d90bc04e1baea65a4b1bc52ae, type: 3}
    - {fileID: 21300000, guid: 2b22752efae064094ba1bc988288ba8b, type: 3}
    - {fileID: 21300000, guid: f1378c5097578472b9f45372e7c4ba02, type: 3}
  m_AnimationClipSettings:
    serializedVersion: 2
    m_AdditiveReferencePoseClip: {fileID: 0}
    m_AdditiveReferencePoseTime: 0
    m_StartTime: 0
    m_StopTime: 1.1333333
    m_OrientationOffsetY: 0
    m_Level: 0
    m_CycleOffset: 0
    m_HasAdditiveReferencePose: 0
    m_LoopTime: 1
    m_LoopBlend: 0
    m_LoopBlendOrientation: 0
    m_LoopBlendPositionY: 0
    m_LoopBlendPositionXZ: 0
    m_KeepOriginalOrientation: 0
    m_KeepOriginalPositionY: 1
    m_KeepOriginalPositionXZ: 0
    m_HeightFromFeet: 0
    m_Mirror: 0
  m_EditorCurves: []
  m_EulerEditorCurves: []
  m_HasGenericRootTransform: 0
  m_HasMotionFloatCurves: 0
  m_Events: []
