%YAML 1.1
%TAG !u! tag:unity3d.com,2011:
--- !u!114 &11400000
MonoBehaviour:
  m_ObjectHideFlags: 0
  m_CorrespondingSourceObject: {fileID: 0}
  m_PrefabInstance: {fileID: 0}
  m_PrefabAsset: {fileID: 0}
  m_GameObject: {fileID: 0}
  m_Enabled: 1
  m_EditorHideFlags: 0
  m_Script: {fileID: 11500000, guid: 4a1742f9cd59f430980760e622687e40, type: 3}
  m_Name: CyanPeach
  m_EditorClassIdentifier: 
  Id: 23
  uiDisplay: {fileID: 21300000, guid: 3cb9af3ea919f4b288bf5fd310567e90, type: 3}
  type: 4
  itemName: CyanPeach
  flavor: "\u99A5\u90C1\u751C\u7F8E\u7684\u871C\u6843\u642D\u914D\u82AC\u82B3\u7684\u70CF\u9F8D\u9752\u8336\uFF0C\u6563\u767C\u51FA\u9BAE\u751C\u7684\u6ECB\u5473\uFF0C\u4E14\u5BCC\u542B\u7DAD\u4ED6\u547DC
    \uFF0C\u6253\u9020\u51FA\u5C11\u5973\u4ED9\u6C23\u7684\u98F2\u54C1\u3002"
  effect: 
  coordination: 
  buffs: []
  fromTea: "\u9752\u8336"
  fromTopping: "\u871C\u6843"
