%YAML 1.1
%TAG !u! tag:unity3d.com,2011:
--- !u!114 &11400000
MonoBehaviour:
  m_ObjectHideFlags: 0
  m_CorrespondingSourceObject: {fileID: 0}
  m_PrefabInstance: {fileID: 0}
  m_PrefabAsset: {fileID: 0}
  m_GameObject: {fileID: 0}
  m_Enabled: 1
  m_EditorHideFlags: 0
  m_Script: {fileID: 11500000, guid: 4a1742f9cd59f430980760e622687e40, type: 3}
  m_Name: GreenJasmine
  m_EditorClassIdentifier: 
  Id: 21
  uiDisplay: {fileID: 21300000, guid: 3cb9af3ea919f4b288bf5fd310567e90, type: 3}
  type: 4
  itemName: GreenJasmine
  flavor: "\u6E05\u65B0\u7684\u82B1\u9999\uFF0C\u8ABF\u548C\u4E86\u7DA0\u8336\u7684\u6F80\u5473\uFF0C\u8336\u5802\u6E05\u6F88\uFF0C\u53E3\u611F\u6EAB\u6F64\u3002"
  effect: 
  coordination: 
  buffs: []
  fromTea: "\u7DA0\u8336"
  fromTopping: "\u8309\u8389"
