%YAML 1.1
%TAG !u! tag:unity3d.com,2011:
--- !u!114 &11400000
MonoBehaviour:
  m_ObjectHideFlags: 0
  m_CorrespondingSourceObject: {fileID: 0}
  m_PrefabInstance: {fileID: 0}
  m_PrefabAsset: {fileID: 0}
  m_GameObject: {fileID: 0}
  m_Enabled: 1
  m_EditorHideFlags: 0
  m_Script: {fileID: 11500000, guid: 4a1742f9cd59f430980760e622687e40, type: 3}
  m_Name: GreenPlum
  m_EditorClassIdentifier: 
  Id: 20
  uiDisplay: {fileID: 21300000, guid: 3cb9af3ea919f4b288bf5fd310567e90, type: 3}
  type: 4
  itemName: GreenPlum
  flavor: "\u6885\u5B50\u9178\u9E79\u5E36\u751C\uFF0C\u642D\u914D\u7DA0\u8336\u7684\u98A8\u5473\uFF0C\u7518\u800C\u4E0D\u81A9\uFF0C\u9664\u4E86\u8ABF\u7BC0\u8EAB\u9AD4\uFF0C\u9084\u80FD\u6D88\u6691\u89E3\u6E34\uFF0C\u63D0\u9AD8\u514D\u75AB\u529B\u3002"
  effect: 
  coordination: 
  buffs: []
  fromTea: "\u7DA0\u8336"
  fromTopping: "\u6885\u5B50"
