%YAML 1.1
%TAG !u! tag:unity3d.com,2011:
--- !u!114 &11400000
MonoBehaviour:
  m_ObjectHideFlags: 0
  m_CorrespondingSourceObject: {fileID: 0}
  m_PrefabInstance: {fileID: 0}
  m_PrefabAsset: {fileID: 0}
  m_GameObject: {fileID: 0}
  m_Enabled: 1
  m_EditorHideFlags: 0
  m_Script: {fileID: 11500000, guid: 4a1742f9cd59f430980760e622687e40, type: 3}
  m_Name: RedBerga
  m_EditorClassIdentifier: 
  Id: 19
  uiDisplay: {fileID: 21300000, guid: 3cb9af3ea919f4b288bf5fd310567e90, type: 3}
  type: 4
  itemName: RedBerga
  flavor: "\u4F7F\u7528\u5929\u7136\u7684\u9999\u6AB8\u6AAC\uFF0C\u642D\u914D\u7D93\u5178\u7684\u7D05\u8336\uFF0C\u53E3\u611F\u6E05\u65B0\u6E05\u723D\uFF0C\u5B8C\u7F8E\u7D50\u5408\u66F4\u4E0A\u4E00\u5C64\u7684\u7368\u6709\u98A8\u5473\u3002"
  effect: 
  coordination: 
  buffs: []
  fromTea: "\u7D05\u8336"
  fromTopping: "\u9999\u6AB8\u6AAC"
