%YAML 1.1
%TAG !u! tag:unity3d.com,2011:
--- !u!29 &1
OcclusionCullingSettings:
  m_ObjectHideFlags: 0
  serializedVersion: 2
  m_OcclusionBakeSettings:
    smallestOccluder: 5
    smallestHole: 0.25
    backfaceThreshold: 100
  m_SceneGUID: 00000000000000000000000000000000
  m_OcclusionCullingData: {fileID: 0}
--- !u!104 &2
RenderSettings:
  m_ObjectHideFlags: 0
  serializedVersion: 9
  m_Fog: 0
  m_FogColor: {r: 0.5, g: 0.5, b: 0.5, a: 1}
  m_FogMode: 3
  m_FogDensity: 0.01
  m_LinearFogStart: 0
  m_LinearFogEnd: 300
  m_AmbientSkyColor: {r: 0.212, g: 0.227, b: 0.259, a: 1}
  m_AmbientEquatorColor: {r: 0.114, g: 0.125, b: 0.133, a: 1}
  m_AmbientGroundColor: {r: 0.047, g: 0.043, b: 0.035, a: 1}
  m_AmbientIntensity: 1
  m_AmbientMode: 0
  m_SubtractiveShadowColor: {r: 0.42, g: 0.478, b: 0.627, a: 1}
  m_SkyboxMaterial: {fileID: 10304, guid: 0000000000000000f000000000000000, type: 0}
  m_HaloStrength: 0.5
  m_FlareStrength: 1
  m_FlareFadeSpeed: 3
  m_HaloTexture: {fileID: 0}
  m_SpotCookie: {fileID: 10001, guid: 0000000000000000e000000000000000, type: 0}
  m_DefaultReflectionMode: 0
  m_DefaultReflectionResolution: 128
  m_ReflectionBounces: 1
  m_ReflectionIntensity: 1
  m_CustomReflection: {fileID: 0}
  m_Sun: {fileID: 0}
  m_IndirectSpecularColor: {r: 0.18028378, g: 0.22571412, b: 0.30692285, a: 1}
  m_UseRadianceAmbientProbe: 0
--- !u!157 &3
LightmapSettings:
  m_ObjectHideFlags: 0
  serializedVersion: 12
  m_GIWorkflowMode: 1
  m_GISettings:
    serializedVersion: 2
    m_BounceScale: 1
    m_IndirectOutputScale: 1
    m_AlbedoBoost: 1
    m_EnvironmentLightingMode: 0
    m_EnableBakedLightmaps: 1
    m_EnableRealtimeLightmaps: 0
  m_LightmapEditorSettings:
    serializedVersion: 12
    m_Resolution: 2
    m_BakeResolution: 40
    m_AtlasSize: 1024
    m_AO: 0
    m_AOMaxDistance: 1
    m_CompAOExponent: 1
    m_CompAOExponentDirect: 0
    m_ExtractAmbientOcclusion: 0
    m_Padding: 2
    m_LightmapParameters: {fileID: 0}
    m_LightmapsBakeMode: 1
    m_TextureCompression: 1
    m_FinalGather: 0
    m_FinalGatherFiltering: 1
    m_FinalGatherRayCount: 256
    m_ReflectionCompression: 2
    m_MixedBakeMode: 2
    m_BakeBackend: 1
    m_PVRSampling: 1
    m_PVRDirectSampleCount: 32
    m_PVRSampleCount: 512
    m_PVRBounces: 2
    m_PVREnvironmentSampleCount: 256
    m_PVREnvironmentReferencePointCount: 2048
    m_PVRFilteringMode: 1
    m_PVRDenoiserTypeDirect: 1
    m_PVRDenoiserTypeIndirect: 1
    m_PVRDenoiserTypeAO: 1
    m_PVRFilterTypeDirect: 0
    m_PVRFilterTypeIndirect: 0
    m_PVRFilterTypeAO: 0
    m_PVREnvironmentMIS: 1
    m_PVRCulling: 1
    m_PVRFilteringGaussRadiusDirect: 1
    m_PVRFilteringGaussRadiusIndirect: 5
    m_PVRFilteringGaussRadiusAO: 2
    m_PVRFilteringAtrousPositionSigmaDirect: 0.5
    m_PVRFilteringAtrousPositionSigmaIndirect: 2
    m_PVRFilteringAtrousPositionSigmaAO: 1
    m_ExportTrainingData: 0
    m_TrainingDataDestination: TrainingData
    m_LightProbeSampleCountMultiplier: 4
  m_LightingDataAsset: {fileID: 0}
  m_LightingSettings: {fileID: 0}
--- !u!196 &4
NavMeshSettings:
  serializedVersion: 2
  m_ObjectHideFlags: 0
  m_BuildSettings:
    serializedVersion: 2
    agentTypeID: 0
    agentRadius: 0.5
    agentHeight: 2
    agentSlope: 45
    agentClimb: 0.4
    ledgeDropHeight: 0
    maxJumpAcrossDistance: 0
    minRegionArea: 2
    manualCellSize: 0
    cellSize: 0.16666667
    manualTileSize: 0
    tileSize: 256
    accuratePlacement: 0
    maxJobWorkers: 0
    preserveTilesOutsideBounds: 0
    debug:
      m_Flags: 0
  m_NavMeshData: {fileID: 0}
--- !u!1 &294701276
GameObject:
  m_ObjectHideFlags: 0
  m_CorrespondingSourceObject: {fileID: 0}
  m_PrefabInstance: {fileID: 0}
  m_PrefabAsset: {fileID: 0}
  serializedVersion: 6
  m_Component:
  - component: {fileID: 294701280}
  - component: {fileID: 294701279}
  - component: {fileID: 294701278}
  - component: {fileID: 294701277}
  m_Layer: 0
  m_Name: Plane
  m_TagString: Untagged
  m_Icon: {fileID: 0}
  m_NavMeshLayer: 0
  m_StaticEditorFlags: 0
  m_IsActive: 1
--- !u!64 &294701277
MeshCollider:
  m_ObjectHideFlags: 0
  m_CorrespondingSourceObject: {fileID: 0}
  m_PrefabInstance: {fileID: 0}
  m_PrefabAsset: {fileID: 0}
  m_GameObject: {fileID: 294701276}
  m_Material: {fileID: 0}
  m_IsTrigger: 0
  m_Enabled: 1
  serializedVersion: 4
  m_Convex: 0
  m_CookingOptions: 30
  m_Mesh: {fileID: 10209, guid: 0000000000000000e000000000000000, type: 0}
--- !u!23 &294701278
MeshRenderer:
  m_ObjectHideFlags: 0
  m_CorrespondingSourceObject: {fileID: 0}
  m_PrefabInstance: {fileID: 0}
  m_PrefabAsset: {fileID: 0}
  m_GameObject: {fileID: 294701276}
  m_Enabled: 1
  m_CastShadows: 1
  m_ReceiveShadows: 1
  m_DynamicOccludee: 1
  m_StaticShadowCaster: 0
  m_MotionVectors: 1
  m_LightProbeUsage: 1
  m_ReflectionProbeUsage: 1
  m_RayTracingMode: 2
  m_RayTraceProcedural: 0
  m_RenderingLayerMask: 1
  m_RendererPriority: 0
  m_Materials:
  - {fileID: 2100000, guid: 19b6d8f5ce1dc4c6a8ed83bd616ad8fd, type: 2}
  m_StaticBatchInfo:
    firstSubMesh: 0
    subMeshCount: 0
  m_StaticBatchRoot: {fileID: 0}
  m_ProbeAnchor: {fileID: 0}
  m_LightProbeVolumeOverride: {fileID: 0}
  m_ScaleInLightmap: 1
  m_ReceiveGI: 1
  m_PreserveUVs: 0
  m_IgnoreNormalsForChartDetection: 0
  m_ImportantGI: 0
  m_StitchLightmapSeams: 1
  m_SelectedEditorRenderState: 3
  m_MinimumChartSize: 4
  m_AutoUVMaxDistance: 0.5
  m_AutoUVMaxAngle: 89
  m_LightmapParameters: {fileID: 0}
  m_SortingLayerID: 0
  m_SortingLayer: 0
  m_SortingOrder: 0
  m_AdditionalVertexStreams: {fileID: 0}
--- !u!33 &294701279
MeshFilter:
  m_ObjectHideFlags: 0
  m_CorrespondingSourceObject: {fileID: 0}
  m_PrefabInstance: {fileID: 0}
  m_PrefabAsset: {fileID: 0}
  m_GameObject: {fileID: 294701276}
  m_Mesh: {fileID: 10209, guid: 0000000000000000e000000000000000, type: 0}
--- !u!4 &294701280
Transform:
  m_ObjectHideFlags: 0
  m_CorrespondingSourceObject: {fileID: 0}
  m_PrefabInstance: {fileID: 0}
  m_PrefabAsset: {fileID: 0}
  m_GameObject: {fileID: 294701276}
  m_LocalRotation: {x: 0, y: 0, z: 0, w: 1}
  m_LocalPosition: {x: -32.4, y: -2.44, z: 9.5}
  m_LocalScale: {x: 5.0747, y: 5.0747, z: 5.0747}
  m_ConstrainProportionsScale: 0
  m_Children: []
  m_Father: {fileID: 0}
  m_RootOrder: 5
  m_LocalEulerAnglesHint: {x: 0, y: 0, z: 0}
--- !u!1001 &407861285
PrefabInstance:
  m_ObjectHideFlags: 0
  serializedVersion: 2
  m_Modification:
    m_TransformParent: {fileID: 0}
    m_Modifications:
    - target: {fileID: -8679921383154817045, guid: 1c37001cd59e5854cb711e19611e1bcf, type: 3}
      propertyPath: m_RootOrder
      value: 2
      objectReference: {fileID: 0}
    - target: {fileID: -8679921383154817045, guid: 1c37001cd59e5854cb711e19611e1bcf, type: 3}
      propertyPath: m_LocalPosition.x
      value: -28.33
      objectReference: {fileID: 0}
    - target: {fileID: -8679921383154817045, guid: 1c37001cd59e5854cb711e19611e1bcf, type: 3}
      propertyPath: m_LocalPosition.y
      value: -0.45
      objectReference: {fileID: 0}
    - target: {fileID: -8679921383154817045, guid: 1c37001cd59e5854cb711e19611e1bcf, type: 3}
      propertyPath: m_LocalPosition.z
      value: 12.89
      objectReference: {fileID: 0}
    - target: {fileID: -8679921383154817045, guid: 1c37001cd59e5854cb711e19611e1bcf, type: 3}
      propertyPath: m_LocalRotation.w
      value: 0.7071067
      objectReference: {fileID: 0}
    - target: {fileID: -8679921383154817045, guid: 1c37001cd59e5854cb711e19611e1bcf, type: 3}
      propertyPath: m_LocalRotation.x
      value: -0.7071068
      objectReference: {fileID: 0}
    - target: {fileID: -8679921383154817045, guid: 1c37001cd59e5854cb711e19611e1bcf, type: 3}
      propertyPath: m_LocalRotation.y
      value: 0
      objectReference: {fileID: 0}
    - target: {fileID: -8679921383154817045, guid: 1c37001cd59e5854cb711e19611e1bcf, type: 3}
      propertyPath: m_LocalRotation.z
      value: -0
      objectReference: {fileID: 0}
    - target: {fileID: -8679921383154817045, guid: 1c37001cd59e5854cb711e19611e1bcf, type: 3}
      propertyPath: m_LocalEulerAnglesHint.x
      value: 0
      objectReference: {fileID: 0}
    - target: {fileID: -8679921383154817045, guid: 1c37001cd59e5854cb711e19611e1bcf, type: 3}
      propertyPath: m_LocalEulerAnglesHint.y
      value: 0
      objectReference: {fileID: 0}
    - target: {fileID: -8679921383154817045, guid: 1c37001cd59e5854cb711e19611e1bcf, type: 3}
      propertyPath: m_LocalEulerAnglesHint.z
      value: 0
      objectReference: {fileID: 0}
    - target: {fileID: -7511558181221131132, guid: 1c37001cd59e5854cb711e19611e1bcf, type: 3}
      propertyPath: m_Materials.Array.data[0]
      value: 
      objectReference: {fileID: 2100000, guid: 7af3c7f8a347e0240b493d4b7133e87a, type: 2}
    - target: {fileID: 919132149155446097, guid: 1c37001cd59e5854cb711e19611e1bcf, type: 3}
      propertyPath: m_Name
      value: waterfull__water
      objectReference: {fileID: 0}
    m_RemovedComponents: []
  m_SourcePrefab: {fileID: 100100000, guid: 1c37001cd59e5854cb711e19611e1bcf, type: 3}
--- !u!4 &486224574 stripped
Transform:
  m_CorrespondingSourceObject: {fileID: 7013311278534112505, guid: a1890f458b18d8542b0d51bae6a02ab9, type: 3}
  m_PrefabInstance: {fileID: 1972035003}
  m_PrefabAsset: {fileID: 0}
--- !u!1001 &683693622
PrefabInstance:
  m_ObjectHideFlags: 0
  serializedVersion: 2
  m_Modification:
    m_TransformParent: {fileID: 0}
    m_Modifications:
    - target: {fileID: -8679921383154817045, guid: fa91c6081d7492d48b08ea7fa04c68d9, type: 3}
      propertyPath: m_RootOrder
      value: 1
      objectReference: {fileID: 0}
    - target: {fileID: -8679921383154817045, guid: fa91c6081d7492d48b08ea7fa04c68d9, type: 3}
      propertyPath: m_LocalPosition.x
      value: -28.507591
      objectReference: {fileID: 0}
    - target: {fileID: -8679921383154817045, guid: fa91c6081d7492d48b08ea7fa04c68d9, type: 3}
      propertyPath: m_LocalPosition.y
      value: 0
      objectReference: {fileID: 0}
    - target: {fileID: -8679921383154817045, guid: fa91c6081d7492d48b08ea7fa04c68d9, type: 3}
      propertyPath: m_LocalPosition.z
      value: 12.980515
      objectReference: {fileID: 0}
    - target: {fileID: -8679921383154817045, guid: fa91c6081d7492d48b08ea7fa04c68d9, type: 3}
      propertyPath: m_LocalRotation.w
      value: 0.7071067
      objectReference: {fileID: 0}
    - target: {fileID: -8679921383154817045, guid: fa91c6081d7492d48b08ea7fa04c68d9, type: 3}
      propertyPath: m_LocalRotation.x
      value: -0.7071068
      objectReference: {fileID: 0}
    - target: {fileID: -8679921383154817045, guid: fa91c6081d7492d48b08ea7fa04c68d9, type: 3}
      propertyPath: m_LocalRotation.y
      value: 0
      objectReference: {fileID: 0}
    - target: {fileID: -8679921383154817045, guid: fa91c6081d7492d48b08ea7fa04c68d9, type: 3}
      propertyPath: m_LocalRotation.z
      value: -0
      objectReference: {fileID: 0}
    - target: {fileID: -8679921383154817045, guid: fa91c6081d7492d48b08ea7fa04c68d9, type: 3}
      propertyPath: m_LocalEulerAnglesHint.x
      value: 0
      objectReference: {fileID: 0}
    - target: {fileID: -8679921383154817045, guid: fa91c6081d7492d48b08ea7fa04c68d9, type: 3}
      propertyPath: m_LocalEulerAnglesHint.y
      value: 0
      objectReference: {fileID: 0}
    - target: {fileID: -8679921383154817045, guid: fa91c6081d7492d48b08ea7fa04c68d9, type: 3}
      propertyPath: m_LocalEulerAnglesHint.z
      value: 0
      objectReference: {fileID: 0}
    - target: {fileID: 919132149155446097, guid: fa91c6081d7492d48b08ea7fa04c68d9, type: 3}
      propertyPath: m_Name
      value: waterfull__rock
      objectReference: {fileID: 0}
    m_RemovedComponents: []
  m_SourcePrefab: {fileID: 100100000, guid: fa91c6081d7492d48b08ea7fa04c68d9, type: 3}
--- !u!1 &904590330
GameObject:
  m_ObjectHideFlags: 0
  m_CorrespondingSourceObject: {fileID: 0}
  m_PrefabInstance: {fileID: 0}
  m_PrefabAsset: {fileID: 0}
  serializedVersion: 6
  m_Component:
  - component: {fileID: 904590333}
  - component: {fileID: 904590332}
  - component: {fileID: 904590331}
  - component: {fileID: 904590334}
  m_Layer: 0
  m_Name: Main Camera
  m_TagString: MainCamera
  m_Icon: {fileID: 0}
  m_NavMeshLayer: 0
  m_StaticEditorFlags: 0
  m_IsActive: 1
--- !u!81 &904590331
AudioListener:
  m_ObjectHideFlags: 0
  m_CorrespondingSourceObject: {fileID: 0}
  m_PrefabInstance: {fileID: 0}
  m_PrefabAsset: {fileID: 0}
  m_GameObject: {fileID: 904590330}
  m_Enabled: 1
--- !u!20 &904590332
Camera:
  m_ObjectHideFlags: 0
  m_CorrespondingSourceObject: {fileID: 0}
  m_PrefabInstance: {fileID: 0}
  m_PrefabAsset: {fileID: 0}
  m_GameObject: {fileID: 904590330}
  m_Enabled: 1
  serializedVersion: 2
  m_ClearFlags: 1
  m_BackGroundColor: {r: 0.19215687, g: 0.3019608, b: 0.4745098, a: 0}
  m_projectionMatrixMode: 1
  m_GateFitMode: 2
  m_FOVAxisMode: 0
  m_SensorSize: {x: 36, y: 24}
  m_LensShift: {x: 0, y: 0}
  m_FocalLength: 50
  m_NormalizedViewPortRect:
    serializedVersion: 2
    x: 0
    y: 0
    width: 1
    height: 1
  near clip plane: 0.3
  far clip plane: 1000
  field of view: 60
  orthographic: 0
  orthographic size: 5
  m_Depth: -1
  m_CullingMask:
    serializedVersion: 2
    m_Bits: 4294967295
  m_RenderingPath: -1
  m_TargetTexture: {fileID: 0}
  m_TargetDisplay: 0
  m_TargetEye: 3
  m_HDR: 1
  m_AllowMSAA: 1
  m_AllowDynamicResolution: 0
  m_ForceIntoRT: 0
  m_OcclusionCulling: 1
  m_StereoConvergence: 10
  m_StereoSeparation: 0.022
--- !u!4 &904590333
Transform:
  m_ObjectHideFlags: 0
  m_CorrespondingSourceObject: {fileID: 0}
  m_PrefabInstance: {fileID: 0}
  m_PrefabAsset: {fileID: 0}
  m_GameObject: {fileID: 904590330}
  m_LocalRotation: {x: 0, y: 0, z: 0, w: 1}
  m_LocalPosition: {x: -26.45, y: 1, z: 0.79}
  m_LocalScale: {x: 1, y: 1, z: 1}
  m_ConstrainProportionsScale: 0
  m_Children: []
  m_Father: {fileID: 0}
  m_RootOrder: 0
  m_LocalEulerAnglesHint: {x: 0, y: 0, z: 0}
--- !u!114 &904590334
MonoBehaviour:
  m_ObjectHideFlags: 0
  m_CorrespondingSourceObject: {fileID: 0}
  m_PrefabInstance: {fileID: 0}
  m_PrefabAsset: {fileID: 0}
  m_GameObject: {fileID: 904590330}
  m_Enabled: 1
  m_EditorHideFlags: 0
  m_Script: {fileID: 11500000, guid: a79441f348de89743a2939f4d699eac1, type: 3}
  m_Name: 
  m_EditorClassIdentifier: 
  m_RenderShadows: 1
  m_RequiresDepthTextureOption: 2
  m_RequiresOpaqueTextureOption: 2
  m_CameraType: 0
  m_Cameras: []
  m_RendererIndex: -1
  m_VolumeLayerMask:
    serializedVersion: 2
    m_Bits: 1
  m_VolumeTrigger: {fileID: 0}
  m_VolumeFrameworkUpdateModeOption: 2
  m_RenderPostProcessing: 0
  m_Antialiasing: 0
  m_AntialiasingQuality: 2
  m_StopNaN: 0
  m_Dithering: 0
  m_ClearDepth: 1
  m_AllowXRRendering: 1
  m_RequiresDepthTexture: 0
  m_RequiresColorTexture: 0
  m_Version: 2
--- !u!1 &1246731047
GameObject:
  m_ObjectHideFlags: 0
  m_CorrespondingSourceObject: {fileID: 0}
  m_PrefabInstance: {fileID: 0}
  m_PrefabAsset: {fileID: 0}
  serializedVersion: 6
  m_Component:
  - component: {fileID: 1246731049}
  - component: {fileID: 1246731048}
  - component: {fileID: 1246731050}
  m_Layer: 0
  m_Name: Directional Light
  m_TagString: Untagged
  m_Icon: {fileID: 0}
  m_NavMeshLayer: 0
  m_StaticEditorFlags: 0
  m_IsActive: 1
--- !u!108 &1246731048
Light:
  m_ObjectHideFlags: 0
  m_CorrespondingSourceObject: {fileID: 0}
  m_PrefabInstance: {fileID: 0}
  m_PrefabAsset: {fileID: 0}
  m_GameObject: {fileID: 1246731047}
  m_Enabled: 1
  serializedVersion: 10
  m_Type: 1
  m_Shape: 0
  m_Color: {r: 1, g: 0.95686275, b: 0.8392157, a: 1}
  m_Intensity: 1
  m_Range: 10
  m_SpotAngle: 30
  m_InnerSpotAngle: 21.80208
  m_CookieSize: 10
  m_Shadows:
    m_Type: 2
    m_Resolution: -1
    m_CustomResolution: -1
    m_Strength: 1
    m_Bias: 0.05
    m_NormalBias: 0.4
    m_NearPlane: 0.2
    m_CullingMatrixOverride:
      e00: 1
      e01: 0
      e02: 0
      e03: 0
      e10: 0
      e11: 1
      e12: 0
      e13: 0
      e20: 0
      e21: 0
      e22: 1
      e23: 0
      e30: 0
      e31: 0
      e32: 0
      e33: 1
    m_UseCullingMatrixOverride: 0
  m_Cookie: {fileID: 0}
  m_DrawHalo: 0
  m_Flare: {fileID: 0}
  m_RenderMode: 0
  m_CullingMask:
    serializedVersion: 2
    m_Bits: 4294967295
  m_RenderingLayerMask: 1
  m_Lightmapping: 4
  m_LightShadowCasterMode: 0
  m_AreaSize: {x: 1, y: 1}
  m_BounceIntensity: 1
  m_ColorTemperature: 6570
  m_UseColorTemperature: 0
  m_BoundingSphereOverride: {x: 0, y: 0, z: 0, w: 0}
  m_UseBoundingSphereOverride: 0
  m_UseViewFrustumForShadowCasterCull: 1
  m_ShadowRadius: 0
  m_ShadowAngle: 0
--- !u!4 &1246731049
Transform:
  m_ObjectHideFlags: 0
  m_CorrespondingSourceObject: {fileID: 0}
  m_PrefabInstance: {fileID: 0}
  m_PrefabAsset: {fileID: 0}
  m_GameObject: {fileID: 1246731047}
  m_LocalRotation: {x: 0.40821788, y: -0.23456968, z: 0.10938163, w: 0.8754261}
  m_LocalPosition: {x: 0, y: 3, z: 0}
  m_LocalScale: {x: 1, y: 1, z: 1}
  m_ConstrainProportionsScale: 0
  m_Children: []
  m_Father: {fileID: 0}
  m_RootOrder: 3
  m_LocalEulerAnglesHint: {x: 50, y: -30, z: 0}
--- !u!114 &1246731050
MonoBehaviour:
  m_ObjectHideFlags: 0
  m_CorrespondingSourceObject: {fileID: 0}
  m_PrefabInstance: {fileID: 0}
  m_PrefabAsset: {fileID: 0}
  m_GameObject: {fileID: 1246731047}
  m_Enabled: 1
  m_EditorHideFlags: 0
  m_Script: {fileID: 11500000, guid: 474bcb49853aa07438625e644c072ee6, type: 3}
  m_Name: 
  m_EditorClassIdentifier: 
  m_Version: 1
  m_UsePipelineSettings: 1
  m_AdditionalLightsShadowResolutionTier: 2
  m_LightLayerMask: 1
  m_CustomShadowLayers: 0
  m_ShadowLayerMask: 1
  m_LightCookieSize: {x: 1, y: 1}
  m_LightCookieOffset: {x: 0, y: 0}
--- !u!1 &1961431206
GameObject:
  m_ObjectHideFlags: 0
  m_CorrespondingSourceObject: {fileID: 0}
  m_PrefabInstance: {fileID: 0}
  m_PrefabAsset: {fileID: 0}
  serializedVersion: 6
  m_Component:
  - component: {fileID: 1961431207}
  m_Layer: 0
  m_Name: Env_VFX
  m_TagString: Untagged
  m_Icon: {fileID: 0}
  m_NavMeshLayer: 0
  m_StaticEditorFlags: 0
  m_IsActive: 1
--- !u!4 &1961431207
Transform:
  m_ObjectHideFlags: 0
  m_CorrespondingSourceObject: {fileID: 0}
  m_PrefabInstance: {fileID: 0}
  m_PrefabAsset: {fileID: 0}
  m_GameObject: {fileID: 1961431206}
  m_LocalRotation: {x: 0, y: 0, z: 0, w: 1}
  m_LocalPosition: {x: 40.2, y: 0, z: 0}
  m_LocalScale: {x: 1, y: 1, z: 1}
  m_ConstrainProportionsScale: 0
  m_Children:
  - {fileID: 486224574}
  m_Father: {fileID: 0}
  m_RootOrder: 4
  m_LocalEulerAnglesHint: {x: 0, y: 0, z: 0}
--- !u!1001 &1972035003
PrefabInstance:
  m_ObjectHideFlags: 0
  serializedVersion: 2
  m_Modification:
    m_TransformParent: {fileID: 1961431207}
    m_Modifications:
    - target: {fileID: 1305976714310787988, guid: a1890f458b18d8542b0d51bae6a02ab9, type: 3}
      propertyPath: m_LocalPosition.x
      value: -55.63
      objectReference: {fileID: 0}
    - target: {fileID: 1305976714310787988, guid: a1890f458b18d8542b0d51bae6a02ab9, type: 3}
      propertyPath: m_LocalPosition.y
      value: -3.47
      objectReference: {fileID: 0}
    - target: {fileID: 1305976714310787988, guid: a1890f458b18d8542b0d51bae6a02ab9, type: 3}
      propertyPath: m_LocalPosition.z
      value: -18.59
      objectReference: {fileID: 0}
    - target: {fileID: 2066941503464162423, guid: a1890f458b18d8542b0d51bae6a02ab9, type: 3}
      propertyPath: m_LocalPosition.x
      value: -51.27
      objectReference: {fileID: 0}
    - target: {fileID: 2066941503464162423, guid: a1890f458b18d8542b0d51bae6a02ab9, type: 3}
      propertyPath: m_LocalPosition.z
      value: -18.02
      objectReference: {fileID: 0}
    - target: {fileID: 7013311278534112505, guid: a1890f458b18d8542b0d51bae6a02ab9, type: 3}
      propertyPath: m_RootOrder
      value: 0
      objectReference: {fileID: 0}
    - target: {fileID: 7013311278534112505, guid: a1890f458b18d8542b0d51bae6a02ab9, type: 3}
      propertyPath: m_LocalScale.y
      value: 1
      objectReference: {fileID: 0}
    - target: {fileID: 7013311278534112505, guid: a1890f458b18d8542b0d51bae6a02ab9, type: 3}
      propertyPath: m_LocalScale.z
      value: 1
      objectReference: {fileID: 0}
    - target: {fileID: 7013311278534112505, guid: a1890f458b18d8542b0d51bae6a02ab9, type: 3}
      propertyPath: m_LocalPosition.x
      value: -19.12
      objectReference: {fileID: 0}
    - target: {fileID: 7013311278534112505, guid: a1890f458b18d8542b0d51bae6a02ab9, type: 3}
      propertyPath: m_LocalPosition.y
      value: 15.8
      objectReference: {fileID: 0}
    - target: {fileID: 7013311278534112505, guid: a1890f458b18d8542b0d51bae6a02ab9, type: 3}
      propertyPath: m_LocalPosition.z
      value: 4.9700003
      objectReference: {fileID: 0}
    - target: {fileID: 7013311278534112505, guid: a1890f458b18d8542b0d51bae6a02ab9, type: 3}
      propertyPath: m_LocalRotation.w
      value: 0.7071068
      objectReference: {fileID: 0}
    - target: {fileID: 7013311278534112505, guid: a1890f458b18d8542b0d51bae6a02ab9, type: 3}
      propertyPath: m_LocalRotation.x
      value: -0.7071068
      objectReference: {fileID: 0}
    - target: {fileID: 7013311278534112505, guid: a1890f458b18d8542b0d51bae6a02ab9, type: 3}
      propertyPath: m_LocalRotation.y
      value: -0
      objectReference: {fileID: 0}
    - target: {fileID: 7013311278534112505, guid: a1890f458b18d8542b0d51bae6a02ab9, type: 3}
      propertyPath: m_LocalRotation.z
      value: -0
      objectReference: {fileID: 0}
    - target: {fileID: 7013311278534112505, guid: a1890f458b18d8542b0d51bae6a02ab9, type: 3}
      propertyPath: m_LocalEulerAnglesHint.x
      value: 0
      objectReference: {fileID: 0}
    - target: {fileID: 7013311278534112505, guid: a1890f458b18d8542b0d51bae6a02ab9, type: 3}
      propertyPath: m_LocalEulerAnglesHint.y
      value: 0
      objectReference: {fileID: 0}
    - target: {fileID: 7013311278534112505, guid: a1890f458b18d8542b0d51bae6a02ab9, type: 3}
      propertyPath: m_LocalEulerAnglesHint.z
      value: 0
      objectReference: {fileID: 0}
    - target: {fileID: 7013311278534112506, guid: a1890f458b18d8542b0d51bae6a02ab9, type: 3}
      propertyPath: m_Name
      value: PS_waterfallSplash (1)
      objectReference: {fileID: 0}
    - target: {fileID: 7013311279155123488, guid: a1890f458b18d8542b0d51bae6a02ab9, type: 3}
      propertyPath: ColorModule.gradient.maxGradient.atime1
      value: 42598
      objectReference: {fileID: 0}
    - target: {fileID: 7013311279155123488, guid: a1890f458b18d8542b0d51bae6a02ab9, type: 3}
      propertyPath: ColorModule.gradient.maxGradient.atime2
      value: 65535
      objectReference: {fileID: 0}
    - target: {fileID: 7013311279155123488, guid: a1890f458b18d8542b0d51bae6a02ab9, type: 3}
      propertyPath: ColorModule.gradient.maxGradient.ctime1
      value: 65535
      objectReference: {fileID: 0}
    - target: {fileID: 7013311279155123488, guid: a1890f458b18d8542b0d51bae6a02ab9, type: 3}
      propertyPath: ColorModule.gradient.maxGradient.ctime2
      value: 65535
      objectReference: {fileID: 0}
    - target: {fileID: 7013311279155123488, guid: a1890f458b18d8542b0d51bae6a02ab9, type: 3}
      propertyPath: ColorModule.gradient.maxGradient.key1.a
      value: 1
      objectReference: {fileID: 0}
    - target: {fileID: 7013311279155123488, guid: a1890f458b18d8542b0d51bae6a02ab9, type: 3}
      propertyPath: ColorModule.gradient.maxGradient.key2.b
      value: 1
      objectReference: {fileID: 0}
    - target: {fileID: 7013311279155123488, guid: a1890f458b18d8542b0d51bae6a02ab9, type: 3}
      propertyPath: ColorModule.gradient.maxGradient.key2.g
      value: 1
      objectReference: {fileID: 0}
    - target: {fileID: 7013311279155123488, guid: a1890f458b18d8542b0d51bae6a02ab9, type: 3}
      propertyPath: ColorModule.gradient.maxGradient.key2.r
      value: 1
      objectReference: {fileID: 0}
    - target: {fileID: 7013311279155123488, guid: a1890f458b18d8542b0d51bae6a02ab9, type: 3}
      propertyPath: ColorModule.gradient.maxGradient.m_NumAlphaKeys
      value: 3
      objectReference: {fileID: 0}
    - target: {fileID: 7013311279155123488, guid: a1890f458b18d8542b0d51bae6a02ab9, type: 3}
      propertyPath: ColorModule.gradient.maxGradient.m_NumColorKeys
      value: 2
      objectReference: {fileID: 0}
    - target: {fileID: 7013311279155123489, guid: a1890f458b18d8542b0d51bae6a02ab9, type: 3}
      propertyPath: m_Materials.Array.size
      value: 1
      objectReference: {fileID: 0}
    - target: {fileID: 7013311279155123489, guid: a1890f458b18d8542b0d51bae6a02ab9, type: 3}
      propertyPath: m_UseCustomVertexStreams
      value: 1
      objectReference: {fileID: 0}
    - target: {fileID: 7013311279155123489, guid: a1890f458b18d8542b0d51bae6a02ab9, type: 3}
      propertyPath: m_VertexStreams.Array.size
      value: 3
      objectReference: {fileID: 0}
    - target: {fileID: 7013311279155123489, guid: a1890f458b18d8542b0d51bae6a02ab9, type: 3}
      propertyPath: m_VertexStreams.Array.data[1]
      value: 3
      objectReference: {fileID: 0}
    - target: {fileID: 7013311279155123489, guid: a1890f458b18d8542b0d51bae6a02ab9, type: 3}
      propertyPath: m_VertexStreams.Array.data[2]
      value: 4
      objectReference: {fileID: 0}
    - target: {fileID: 7013311279155123490, guid: a1890f458b18d8542b0d51bae6a02ab9, type: 3}
      propertyPath: m_LocalScale.x
      value: 0.67151356
      objectReference: {fileID: 0}
    - target: {fileID: 7013311279155123490, guid: a1890f458b18d8542b0d51bae6a02ab9, type: 3}
      propertyPath: m_LocalScale.y
      value: 0.67151356
      objectReference: {fileID: 0}
    - target: {fileID: 7013311279155123490, guid: a1890f458b18d8542b0d51bae6a02ab9, type: 3}
      propertyPath: m_LocalScale.z
      value: 0.67151356
      objectReference: {fileID: 0}
    - target: {fileID: 7013311279155123490, guid: a1890f458b18d8542b0d51bae6a02ab9, type: 3}
      propertyPath: m_LocalPosition.x
      value: -42.61
      objectReference: {fileID: 0}
    - target: {fileID: 7013311279155123490, guid: a1890f458b18d8542b0d51bae6a02ab9, type: 3}
      propertyPath: m_LocalPosition.y
      value: -4.23
      objectReference: {fileID: 0}
    - target: {fileID: 7013311279155123490, guid: a1890f458b18d8542b0d51bae6a02ab9, type: 3}
      propertyPath: m_LocalPosition.z
      value: -17.98
      objectReference: {fileID: 0}
    - target: {fileID: 7013311279155123490, guid: a1890f458b18d8542b0d51bae6a02ab9, type: 3}
      propertyPath: m_LocalRotation.w
      value: 0.81239885
      objectReference: {fileID: 0}
    - target: {fileID: 7013311279155123490, guid: a1890f458b18d8542b0d51bae6a02ab9, type: 3}
      propertyPath: m_LocalRotation.y
      value: 0.000000059604645
      objectReference: {fileID: 0}
    - target: {fileID: 7013311279155123490, guid: a1890f458b18d8542b0d51bae6a02ab9, type: 3}
      propertyPath: m_LocalRotation.z
      value: 0.5831022
      objectReference: {fileID: 0}
    - target: {fileID: 7013311279155123490, guid: a1890f458b18d8542b0d51bae6a02ab9, type: 3}
      propertyPath: m_LocalEulerAnglesHint.z
      value: 71.338
      objectReference: {fileID: 0}
    - target: {fileID: 7013311279219424340, guid: a1890f458b18d8542b0d51bae6a02ab9, type: 3}
      propertyPath: m_LocalPosition.x
      value: -43.2
      objectReference: {fileID: 0}
    - target: {fileID: 7013311279219424340, guid: a1890f458b18d8542b0d51bae6a02ab9, type: 3}
      propertyPath: m_LocalPosition.z
      value: -18.73
      objectReference: {fileID: 0}
    - target: {fileID: 7013311279219424340, guid: a1890f458b18d8542b0d51bae6a02ab9, type: 3}
      propertyPath: m_LocalRotation.w
      value: 0.7280693
      objectReference: {fileID: 0}
    - target: {fileID: 7013311279219424340, guid: a1890f458b18d8542b0d51bae6a02ab9, type: 3}
      propertyPath: m_LocalRotation.x
      value: 0.051179517
      objectReference: {fileID: 0}
    - target: {fileID: 7013311279219424340, guid: a1890f458b18d8542b0d51bae6a02ab9, type: 3}
      propertyPath: m_LocalRotation.y
      value: 0.07062806
      objectReference: {fileID: 0}
    - target: {fileID: 7013311279219424340, guid: a1890f458b18d8542b0d51bae6a02ab9, type: 3}
      propertyPath: m_LocalRotation.z
      value: 0.67993194
      objectReference: {fileID: 0}
    - target: {fileID: 7013311279219424340, guid: a1890f458b18d8542b0d51bae6a02ab9, type: 3}
      propertyPath: m_LocalEulerAnglesHint.x
      value: -1.233
      objectReference: {fileID: 0}
    - target: {fileID: 7013311279219424340, guid: a1890f458b18d8542b0d51bae6a02ab9, type: 3}
      propertyPath: m_LocalEulerAnglesHint.y
      value: 9.932
      objectReference: {fileID: 0}
    - target: {fileID: 7013311279219424340, guid: a1890f458b18d8542b0d51bae6a02ab9, type: 3}
      propertyPath: m_LocalEulerAnglesHint.z
      value: 85.977
      objectReference: {fileID: 0}
    - target: {fileID: 7013311279219424346, guid: a1890f458b18d8542b0d51bae6a02ab9, type: 3}
      propertyPath: ColorModule.gradient.maxGradient.atime1
      value: 42598
      objectReference: {fileID: 0}
    - target: {fileID: 7013311279219424346, guid: a1890f458b18d8542b0d51bae6a02ab9, type: 3}
      propertyPath: ColorModule.gradient.maxGradient.atime2
      value: 65535
      objectReference: {fileID: 0}
    - target: {fileID: 7013311279219424346, guid: a1890f458b18d8542b0d51bae6a02ab9, type: 3}
      propertyPath: ColorModule.gradient.maxGradient.ctime1
      value: 65535
      objectReference: {fileID: 0}
    - target: {fileID: 7013311279219424346, guid: a1890f458b18d8542b0d51bae6a02ab9, type: 3}
      propertyPath: ColorModule.gradient.maxGradient.ctime2
      value: 65535
      objectReference: {fileID: 0}
    - target: {fileID: 7013311279219424346, guid: a1890f458b18d8542b0d51bae6a02ab9, type: 3}
      propertyPath: ColorModule.gradient.maxGradient.key1.a
      value: 1
      objectReference: {fileID: 0}
    - target: {fileID: 7013311279219424346, guid: a1890f458b18d8542b0d51bae6a02ab9, type: 3}
      propertyPath: ColorModule.gradient.maxGradient.key2.b
      value: 1
      objectReference: {fileID: 0}
    - target: {fileID: 7013311279219424346, guid: a1890f458b18d8542b0d51bae6a02ab9, type: 3}
      propertyPath: ColorModule.gradient.maxGradient.key2.g
      value: 1
      objectReference: {fileID: 0}
    - target: {fileID: 7013311279219424346, guid: a1890f458b18d8542b0d51bae6a02ab9, type: 3}
      propertyPath: ColorModule.gradient.maxGradient.key2.r
      value: 1
      objectReference: {fileID: 0}
    - target: {fileID: 7013311279219424346, guid: a1890f458b18d8542b0d51bae6a02ab9, type: 3}
      propertyPath: ColorModule.gradient.maxGradient.m_NumAlphaKeys
      value: 3
      objectReference: {fileID: 0}
    - target: {fileID: 7013311279219424346, guid: a1890f458b18d8542b0d51bae6a02ab9, type: 3}
      propertyPath: ColorModule.gradient.maxGradient.m_NumColorKeys
      value: 2
      objectReference: {fileID: 0}
    - target: {fileID: 7013311279219424347, guid: a1890f458b18d8542b0d51bae6a02ab9, type: 3}
      propertyPath: m_Materials.Array.size
      value: 1
      objectReference: {fileID: 0}
    - target: {fileID: 7013311279219424347, guid: a1890f458b18d8542b0d51bae6a02ab9, type: 3}
      propertyPath: m_UseCustomVertexStreams
      value: 1
      objectReference: {fileID: 0}
    - target: {fileID: 7013311279219424347, guid: a1890f458b18d8542b0d51bae6a02ab9, type: 3}
      propertyPath: m_VertexStreams.Array.size
      value: 3
      objectReference: {fileID: 0}
    - target: {fileID: 7013311279219424347, guid: a1890f458b18d8542b0d51bae6a02ab9, type: 3}
      propertyPath: m_VertexStreams.Array.data[1]
      value: 3
      objectReference: {fileID: 0}
    - target: {fileID: 7013311279219424347, guid: a1890f458b18d8542b0d51bae6a02ab9, type: 3}
      propertyPath: m_VertexStreams.Array.data[2]
      value: 4
      objectReference: {fileID: 0}
    - target: {fileID: 7860422142490181601, guid: a1890f458b18d8542b0d51bae6a02ab9, type: 3}
      propertyPath: m_LocalPosition.x
      value: -57.01
      objectReference: {fileID: 0}
    - target: {fileID: 7860422142490181601, guid: a1890f458b18d8542b0d51bae6a02ab9, type: 3}
      propertyPath: m_LocalPosition.y
      value: -3.5
      objectReference: {fileID: 0}
    - target: {fileID: 7860422142490181601, guid: a1890f458b18d8542b0d51bae6a02ab9, type: 3}
      propertyPath: m_LocalPosition.z
      value: -17.37
      objectReference: {fileID: 0}
    - target: {fileID: 7860422142490181601, guid: a1890f458b18d8542b0d51bae6a02ab9, type: 3}
      propertyPath: m_LocalRotation.w
      value: 0.5773062
      objectReference: {fileID: 0}
    - target: {fileID: 7860422142490181601, guid: a1890f458b18d8542b0d51bae6a02ab9, type: 3}
      propertyPath: m_LocalRotation.x
      value: 0.084793925
      objectReference: {fileID: 0}
    - target: {fileID: 7860422142490181601, guid: a1890f458b18d8542b0d51bae6a02ab9, type: 3}
      propertyPath: m_LocalRotation.y
      value: -0.066961646
      objectReference: {fileID: 0}
    - target: {fileID: 7860422142490181601, guid: a1890f458b18d8542b0d51bae6a02ab9, type: 3}
      propertyPath: m_LocalRotation.z
      value: 0.8093477
      objectReference: {fileID: 0}
    - target: {fileID: 7860422142490181601, guid: a1890f458b18d8542b0d51bae6a02ab9, type: 3}
      propertyPath: m_LocalEulerAnglesHint.x
      value: 11.905
      objectReference: {fileID: 0}
    - target: {fileID: 7860422142490181601, guid: a1890f458b18d8542b0d51bae6a02ab9, type: 3}
      propertyPath: m_LocalEulerAnglesHint.y
      value: 3.512
      objectReference: {fileID: 0}
    - target: {fileID: 7860422142490181601, guid: a1890f458b18d8542b0d51bae6a02ab9, type: 3}
      propertyPath: m_LocalEulerAnglesHint.z
      value: 109.366
      objectReference: {fileID: 0}
    - target: {fileID: 8945346938451947498, guid: a1890f458b18d8542b0d51bae6a02ab9, type: 3}
      propertyPath: m_LocalScale.x
      value: 0.94804394
      objectReference: {fileID: 0}
    - target: {fileID: 8945346938451947498, guid: a1890f458b18d8542b0d51bae6a02ab9, type: 3}
      propertyPath: m_LocalScale.y
      value: 0.94804394
      objectReference: {fileID: 0}
    - target: {fileID: 8945346938451947498, guid: a1890f458b18d8542b0d51bae6a02ab9, type: 3}
      propertyPath: m_LocalScale.z
      value: 0.94804394
      objectReference: {fileID: 0}
    - target: {fileID: 8945346938451947498, guid: a1890f458b18d8542b0d51bae6a02ab9, type: 3}
      propertyPath: m_LocalPosition.x
      value: -49.6
      objectReference: {fileID: 0}
    - target: {fileID: 8945346938451947498, guid: a1890f458b18d8542b0d51bae6a02ab9, type: 3}
      propertyPath: m_LocalPosition.y
      value: -4.04
      objectReference: {fileID: 0}
    - target: {fileID: 8945346938451947498, guid: a1890f458b18d8542b0d51bae6a02ab9, type: 3}
      propertyPath: m_LocalPosition.z
      value: -17.97
      objectReference: {fileID: 0}
    m_RemovedComponents: []
  m_SourcePrefab: {fileID: 100100000, guid: a1890f458b18d8542b0d51bae6a02ab9, type: 3}
